{
    "client_id":0,
    "cart_type":1,
    "timestamp":1670707014,
    "checkout_price_data":{
       "merchandise_subtotal":1000000000,
       "shipping_subtotal_before_discount":5000000000,
       "shipping_discount_subtotal":0,
       "shipping_subtotal":5000000000,
       "tax_payable":0,
       "tax_exemption":0,
       "custom_tax_subtotal":0,
       "promocode_applied":null,
       "credit_card_promotion":null,
       "shopee_coins_redeemed":null,
       "group_buy_discount":0,
       "bundle_deals_discount":null,
       "price_adjustment":null,
       "buyer_txn_fee":100000000,
       "buyer_service_fee":100000000,
       "insurance_subtotal":0,
       "insurance_before_discount_subtotal":0,
       "insurance_discount_subtotal":0,
       "vat_subtotal":0,
       "total_payable":6200000000
    },
    "order_update_info":{
       
    },
    "dropshipping_info":{
       "enabled":false,
       "name":"",
       "phone_number":""
    },
    "promotion_data":{
       "can_use_coins":false,
       "use_coins":false,
       "platform_vouchers":[
          
       ],
       "free_shipping_voucher_info":{
          "free_shipping_voucher_id":0,
          "free_shipping_voucher_code":"",
          "disabled_reason":null,
          "banner_info":{
             "msg":"",
             "learn_more_msg":""
          },
          "required_be_channel_ids":[
             
          ],
          "required_spm_channels":[
             
          ]
       },
       "highlighted_platform_voucher_type":-1,
       "shop_voucher_entrances":[
          {
             "shopid":48082125,
             "status":true
          }
       ],
       "applied_voucher_code":null,
       "voucher_code":null,
       "voucher_info":{
          "coin_earned":0,
          "voucher_code":null,
          "coin_percentage":0,
          "discount_percentage":0,
          "discount_value":0,
          "promotionid":0,
          "reward_type":0,
          "used_price":0
       },
       "invalid_message":"",
       "price_discount":0,
       "coin_info":{
          "coin_offset":0,
          "coin_used":0,
          "coin_earn_by_voucher":0,
          "coin_earn":0
       },
       "card_promotion_id":null,
       "card_promotion_enabled":false,
       "promotion_msg":""
    },
    "selected_payment_channel_data":{
       "version":2,
       "option_info":"",
       "channel_id":8005200,
       "channel_item_option_info":{
          "option_info":"89052004"
       },
       "text_info":{
          
       }
    },
    "shoporders":[
       {
          "shop":{
             "shopid":48082125,
             "shop_name":"Leedoo Official Shop",
             "cb_option":false,
             "is_official_shop":true,
             "remark_type":0,
             "support_ereceipt":false,
             "seller_user_id":48083513,
             "shop_tag":1
          },
          "items":[
             {
                "itemid":16414221043,
                "modelid":68562461640,
                "quantity":1,
                "item_group_id":null,
                "insurances":[
                   {
                      "insurance_product_id":"1690597860413811713",
                      "name":"Proteksi Kerusakan +",
                      "description":"Melindungi produkmu dari kerusakan/kerugian total selama 6 bulan.",
                      "product_detail_page_url":"https://insurance.shopee.co.id/product-protection/profile?from=mp_checkout&product_id=1690597860413811713",
                      "premium":62500000,
                      "premium_before_discount":62500000,
                      "insurance_quantity":1,
                      "selected":false
                   }
                ],
                "shopid":48082125,
                "shippable":true,
                "non_shippable_err":"",
                "none_shippable_reason":"",
                "none_shippable_full_reason":"",
                "price":1000000000,
                "name":"Leedoo Sepatu Pria Sneakers Casual Running Fashion Terbaru MR207",
                "model_name":"Hitam 42",
                "add_on_deal_id":0,
                "is_add_on_sub_item":false,
                "is_pre_order":false,
                "is_streaming_price":false,
                "image":"39671ff9cb97b19d417ccd7224ddb0e1",
                "checkout":true,
                "categories":[
                   {
                      "catids":[
                         100012,
                         100064
                      ]
                   }
                ],
                "is_spl_zero_interest":false,
                "is_prescription":false,
                "channel_exclusive_info":{
                   "source_id":0,
                   "token":""
                },
                "offerid":0,
                "supports_free_returns":false
             }
          ],
          "tax_info":{
             "use_new_custom_tax_msg":false,
             "custom_tax_msg":"",
             "custom_tax_msg_short":"",
             "remove_custom_tax_hint":false
          },
          "tax_payable":0,
          "shipping_id":1,
          "shipping_fee_discount":0,
          "shipping_fee":5000000000,
          "order_total_without_shipping":1000000000,
          "order_total":6000000000,
          "buyer_remark":"",
          "ext_ad_info_mappings":[
             
          ]
       }
    ],
    "shipping_orders":[
       {
          "shipping_id":1,
          "shoporder_indexes":[
             0
          ],
          "selected_logistic_channelid":8003,
          "selected_preferred_delivery_time_option_id":0,
          "buyer_remark":"",
          "buyer_address_data":{
             "addressid":52404512,
             "address_type":0,
             "tax_address":""
          },
          "fulfillment_info":{
             "fulfillment_flag":64,
             "fulfillment_source":"",
             "managed_by_sbs":false,
             "order_fulfillment_type":2,
             "warehouse_address_id":0,
             "is_from_overseas":false
          },
          "order_total":6000000000,
          "order_total_without_shipping":1000000000,
          "selected_logistic_channelid_with_warning":null,
          "shipping_fee":5000000000,
          "shipping_fee_discount":0,
          "shipping_group_description":"",
          "shipping_group_icon":"",
          "tax_payable":0,
          "is_fsv_applied":false,
          "prescription_info":{
             "images":null,
             "required":false,
             "max_allowed_images":5
          }
       }
    ],
    "fsv_selection_infos":[
       
    ],
    "buyer_info":{
       "share_to_friends_info":{
          "display_toggle":false,
          "enable_toggle":false,
          "allow_to_share":false
       },
       "kyc_info":null,
       "checkout_email":""
    },
    "client_event_info":{
       "is_platform_voucher_changed":false,
       "is_fsv_changed":false
    },
    "buyer_txn_fee_info":{
       "title":"Biaya Penanganan",
       "description":"Besar biaya penanganan adalah Rp2.500 dari total transaksi.",
       "learn_more_url":"https://shopee.co.id/m/biaya-penanganan-indomaretisaku"
    },
    "disabled_checkout_info":{
       "description":"",
       "auto_popup":false,
       "error_infos":[
          
       ]
    },
    "can_checkout":true,
    "buyer_service_fee_info":{
       "learn_more_url":"https://shopee.co.id/m/biaya-layanan"
    },
    "__raw":{
       
    },
    "_cft":[
       1236587
    ],
    "captcha_version":1,
    "device_info":{
       
    }
 }